cheese,formaggio,queso,fromage,käse
bone,osso,hueso,os,knochen
socks,calzini,calcetines,chaussettes,socken
leaf,foglia,hoja,feuille,blatt
whale,balena,ballena,baleine,wal
pie,tortino,pastel,tarte,torte
shirt,camicia,camisa,chemise,hemd
orange,arancia,naranja,orange,orange
lollipop,lecca-lecca,piruleta,sucette,lollipop
mouth,bocca,boca,bouche,mund
snake,serpente,serpiente,serpent,schlange
jar,vasetto,tarro,bocal,krug
lamp,lampada,lámpara,lampe,lampe
kite,aquilone,cometa,cerf-volant,drache
monkey,scimmia,mono,singe,affe
swing,altalena,columpio,balançoire,schaukel
cloud,nuvola,nube,nuage,wolke
baby,bambino,bebé,bébé,baby
eyes,occhi,ojos,yeux,augen
pen,penna,pluma,stylo,stift
giraffe,giraffa,jirafa,girafe,giraffe
grapes,uva,uvas,raisins,weintrauben
book,libro,libro,livre,buch
ocean,oceano,océano,océan,ozean
star,stella,estrella,étoile,stern
cupcake,cupcake,magdalena,cupcake,törtchen
cow,mucca,vaca,vache,kuh
lips,labbra,labios,lèvres,lippen
worm,verme,gusano,ver,wurm
sun,sole,sol,soleil,sonne
basketball,pallacanestro,baloncesto,basket-ball,basketball
hat,cappello,sombrero,chapeau,hut
bus,autobus,autobús,bus,bus
chair,sedia,silla,chaise,stuhl
purse,borsa,bolso,sac à main,handtasche
head,testa,cabeza,tête,kopf
shoe,scarpa,zapato,chaussure,schuh
ghost,fantasma,fantasma,fantôme,geist
coat,cappotto,abrigo,manteau,mantel
chicken,pollo,pollo,poulet,huhn
heart,cuore,corazón,cœur,herz
jellyfish,medusa,medusa,méduse,qualle
tree,albero,árbol,arbre,baum
seashell,conchiglia,concha marina,coquillage,muschel
duck,anatra,pato,canard,ente
bracelet,braccialetto,pulsera,bracelet,armband
grass,erba,hierba,herbe,gras
jacket,giacca,chaqueta,veste,jacke
slide,scivolo,tobogán,toboggan,rutsche
doll,bambola,muñeca,poupée,puppe
spider,ragno,araña,araignée,spinne
clock,orologio,reloj,horloge,uhr
cup,tazza,taza,tasse,tasse
bridge,ponte,puente,pont,brücke
apple,mela,manzana,pomme,apfel
drum,tamburo,tambor,tambour,trommel
ears,orecchie,orejas,oreilles,ohren
egg,uovo,huevo,œuf,ei
bread,pane,pan,pain,brot
nose,naso,nariz,nez,nase
house,casa,casa,maison,haus
beach,spiaggia,playa,plage,strand
airplane,aereo,avión,avion,flugzeug
moth,falena,polilla,papillon de nuit,motte
light,luce,luz,lumière,licht
turtle,tartaruga,tortuga,tortue,schildkröte
ball,palla,bola,balle,ball
carrot,carota,zanahoria,carotte,karotte
cherry,ciliegia,cereza,cerise,kirsche
circle,cerchio,círculo,cercle,kreis
bed,letto,cama,lit,bett
ant,formica,hormiga,fourmi,ameise
girl,ragazza,chica,fille,mädchen
mouse,topo,ratón,souris,maus
banana,banana,plátano,banane,banane
alligator,alligatore,caimán,alligator,alligator
bell,campana,campana,cloche,glocke
robot,robot,robot,robot,roboter
smile,sorriso,sonrisa,sourire,lächeln
bike,bici,bicicleta,vélo,fahrrad
rocket,razzo,cohete,fusée,rakete
dinosaur,dinosauro,dinosaurio,dinosaure,dinosaurier
dog,cane,perro,chien,hund
bunny,coniglio,conejo,lapin,hase
cookie,biscotto,galleta,cookie,keks
bowl,ciotola,tazón,bol,schale
door,porta,puerta,porte,tür
horse,cavallo,caballo,cheval,pferd
song,canzone,canción,chanson,lied
trip,viaggio,viaje,voyage,reise
backbone,spina dorsale,columna vertebral,épine dorsale,wirbelsäule
bomb,bomba,bomba,bombe,bombe
round,rotonda,ronda,round,runde
treasure,tesoro,tesoro,trésor,schatz
garbage,spazzatura,basura,ordures,müll
park,parco,parque,parc,park
whistle,fischio,silbato,sifflet,pfeife
palace,palazzo,palacio,palais,palast
baseball,baseball,béisbol,baseball,baseball
coal,carbone,carbón,charbon,kohle
queen,regina,reina,reine,königin
dominoes,domino,dominó,dominos,dominos
photo,foto,foto,photo,foto
graph,grafico,gráfico,graphique,diagramm
computer,computer,ordenador,ordinateur,computer
hockey,hockey,hockey,hockey,eishockey
plane,aereo,avión,avion,flugzeug
pepper,pepe,pimienta,poivre,pfeffer
key,chiave,llave,clé,schlüssel
whisk,frusta,batidor,fouet,schneebesen
cake,torta,pastel,gâteau,kuchen
circus,circo,circo,cirque,zirkus
battery,batteria,batería,batterie,batterie
mailman,postino,cartero,facteur,postbote
cowboy,cowboy,vaquero,cow-boy,cowboy
password,password,contraseña,mot de passe,passwort
bicycle,bicicletta,bicicleta,vélo,fahrrad
skate,pattino,patín,patin,schlittschuh
lightsaber,spada laser,sable de luz,sabre laser,lichtschwert
nature,natura,naturaleza,nature,natur
shallow,superficiale,poco profundo,peu profond,seicht
toast,toast,tostado,toast,toast
outside,fuori,exterior,extérieur,draußen
america,America,América,amerique,amerika
gingerbread,pan di zenzero,pan de jengibre,pain d'épice,lebkuchen
man,uomo,hombre,homme,mann
bowtie,papillon,pajarita,noeud papillon,fliege
bulb,lampadina,bombilla,ampoule,glühbirne
platypus,ornitorinco,ornitorrinco,ornithorynque,schnabeltier
music,musica,música,musique,musik
sailboat,barca a vela,velero,voilier,segelboot
popsicle,ghiacciolo,paleta,popsicle,stieleis
knee,ginocchio,rodilla,genou,knie
pineapple,ananas,piña,ananas,ananas
tusk,zanna,colmillo,défense,stoßzahn
sprinkler,irrigatore,aspersor,arroseur,sprinkler
money,denaro,dinero,argent,geld
spool,rocchetto,carrete,bobine,spule
lighthouse,faro,faro,phare,leuchtturm
doormat,zerbino,felpudo,paillasson,fußmatte
face,volto,cara,visage,gesicht
flute,flauto,flauta,flûte,flöte
owl,gufo,búho,hibou,eule
gate,cancello,puerta,portail,tor
suitcase,valigia,maleta,valise,koffer
bathroom,bagno,baño,salle de bain,badezimmer
scale,bilancia,balanza,balance,waage
peach,pesca,melocotón,pêche,pfirsich
newspaper,giornale,periódico,journal,zeitung
can,barattolo,lata,bidon,dose
hook,gancio,gancho,crochet,haken
school,scuola,escuela,école,schule
beaver,castoro,castor,castor,biber
camera,macchina fotografica,cámara,caméra,kamera
hair,capelli,pelo,cheveux,haar
dryer,asciugatrice,secador,séchoir,trockner
mushroom,fungo,seta,champignon,pilz
quilt,trapunta,colcha,édredon,steppdecke
dollar,dollaro,dólar,dollar,dollar
soda,soda,soda,soda,limonade
chin,mento,barbilla,menton,kinn
garden,giardino,jardín,jardin,garten
ticket,biglietto,billete,billet,ticket
boot,stivale,bota,botte,stiefel
cello,violoncello,violonchelo,violoncelle,cello
rain,pioggia,lluvia,pluie,regen
clam,vongola,almeja,palourde,muschel
pelican,pellicano,pelícano,pélican,pelikan
stingray,manta,raya,raie,stechrochen
sheep,pecora,oveja,mouton,schaf
traffic light,semaforo,semáforo,feu de signalisation,ampel
coconut,noce di cocco,coco,noix de coco,kokosnuss
crib,culla,cuna,berceau,krippe
hippo,ippopotamo,hipopótamo,hippopotame,nilpferd
ring,anello,anillo,anneau,ring
video,video,video,vidéo,video
snowflake,fiocco di neve,copo de nieve,flocon de neige,schneeflocke
frame,cornice,marco,cadre,rahmen
gel,gel,gel,gel,gel
paint,vernice,pintura,peinture,farbe
bath,bagno,baño,bain,bad
drill,trapano,taladro,perceuse,bohrer
chalk,gesso,tiza,craie,kreide
remote,telecomando,remoto,télécommande,fernbedienung
word,parola,palabra,mot,wort
spring,molla,resorte,ressort,feder
stone,pietra,piedra,pierre,stein
rug,tappeto,alfombra,tapis,teppich
thermometer,termometro,termómetro,thermomètre,thermometer
stockings,calze,medias,bas,strümpfe
dvd,dvd,dvd,dvd,dvd
flower,fiore,flor,fleur,blume
car,auto,coche,voiture,auto
check,assegno,cheque,chèque,scheck
vase,vaso,jarrón,vase,vase
hanger,gruccia,percha,cintre,kleiderbügel
speaker,altoparlante,altavoz,haut-parleur,lautsprecher
screw,vite,tornillo,vis,schraube
paper,carta,papel,papier,papier
box,scatola,caja,boîte,kiste
glasses,occhiali,gafas,lunettes,brille
pick,plettro,pico,pioche,hacke
helmet,casco,casco,casque,helm
puddle,pozzanghera,charco,flaque d'eau,pfütze
pot,vaso,olla,pot,topf
thread,filo,rosca,fil,faden
bow,fiocco,arco,arc,bogen
flag,bandiera,bandera,drapeau,fahne
fork,forchetta,tenedor,fourchette,gabel
tape,nastro adesivo,cinta,ruban adhésif,band
tissue,fazzoletto,tejido,tissu,taschentuch
balloon,palloncino,globo,ballon,ballon
lace,pizzo,encaje,dentelle,schnur
needle,ago,aguja,aiguille,nadel
chandelier,lampadario,lámpara de araña,lustre,kronleuchter
deodorant,deodorante,desodorante,déodorant,deodorant
button,bottone,botón,bouton,knopf
note,nota,nota,note,notiz
candy,caramella,caramelo,bonbons,süßigkeit
tooth paste,dentifricio,pasta de dientes,dentifrice,zahnpasta
sharpie,temperino,sharpie,sharpie,edding
pencil,matita,lápiz,crayon,bleistift
bookmark,segnalibro,marcapáginas,marque-page,lesezeichen
spoon,cucchiaio,cuchara,cuillère,löffel
seatbelt,cintura di sicurezza,cinturón de seguridad,ceinture de sécurité,sicherheitsgurt
mouse pad,tappetino del mouse,alfombrilla de ratón,tapis de souris,mauspad
nail,chiodo,clavo,clou,nagel
cork,sughero,corcho,liège,kork
stop sign,segnale di stop,signo de parada,panneau d'arrêt,stoppschild
gage,calibro,calibrador,jauge,messlehre
rubberband,elastico,banda de goma,élastique,gummiband
zipper,cerniera,cremallera,fermeture à glissière,reißverschluss
canvas,tela,lona,toile,leinwand
sponge,spugna,esponja,éponge,schwamm
eraser,gomma,goma de borrar,gomme,radiergummi
bottle,bottiglia,botella,bouteille,flasche
candle,candela,vela,bougie,kerze
buckle,fibbia,hebilla,bouclier,schnalle
shovel,pala,pala,pelle,schaufel
slipper,ciabatta,zapatilla,pantoufle,pantoffel
cable,cavo,cable,câble,kabel
ice,ghiaccio,hielo,glace,eis
credit card,carta di credito,tarjeta de crédito,carte de crédit,kreditkarte
nail clippers,tagliaunghie,cortaúñas,coupe-ongles,nagelknipser
tweezers,pinzette,pinzas,pince à épiler,pinzette
hair tie,elastico per capelli,lazo para el pelo,attache cheveux,haargummi
charger,caricatore,cargador,chargeur,ladegerät




